query,sub_category,category
When was Bully launched?,Video_Games,Games
resume of Grave of the Fireflies,Animation,Arts
Universities with Sociology,Social_Science,Science
Nano System Studies,Technology,Science
Who is Ozzy Osbourne,Music,Arts
Psycho Key band is from,Music,Arts
Phantom of the Opera review,Performing_Arts,Arts
When was formed the Adventure Racing Club in Mexico?,Adventure_Racing,Sports